D:\SonTX\CaoHoc\Java\tourist\tourist\src\main\java\com\sontx\tourist\common\Common.java
D:\SonTX\CaoHoc\Java\tourist\tourist\src\main\java\com\sontx\tourist\db\DbConnectionRefactoryImpl.java
D:\SonTX\CaoHoc\Java\tourist\tourist\src\main\java\com\sontx\tourist\service\GetListCustomerService.java
D:\SonTX\CaoHoc\Java\tourist\tourist\src\main\java\com\sontx\tourist\db\MySQLActions.java
D:\SonTX\CaoHoc\Java\tourist\tourist\src\main\java\com\sontx\tourist\db\MySQLAccess.java
D:\SonTX\CaoHoc\Java\tourist\tourist\src\main\java\com\sontx\tourist\service\GetListRealTourService.java
D:\SonTX\CaoHoc\Java\tourist\tourist\src\main\java\com\sontx\tourist\config\ConfigFileListener.java
D:\SonTX\CaoHoc\Java\tourist\tourist\src\main\java\com\sontx\tourist\entity\Customer.java
D:\SonTX\CaoHoc\Java\tourist\tourist\src\main\java\com\sontx\tourist\entity\Tour.java
D:\SonTX\CaoHoc\Java\tourist\tourist\src\main\java\com\sontx\tourist\db\DbImpl.java
D:\SonTX\CaoHoc\Java\tourist\tourist\src\main\java\com\sontx\tourist\config\AppConfig.java
D:\SonTX\CaoHoc\Java\tourist\tourist\src\main\java\com\sontx\tourist\common\AppUtils.java
D:\SonTX\CaoHoc\Java\tourist\tourist\src\main\java\com\sontx\tourist\service\GetCustomerTour.java
D:\SonTX\CaoHoc\Java\tourist\tourist\src\main\java\com\sontx\tourist\entity\RealTour.java
D:\SonTX\CaoHoc\Java\tourist\tourist\src\main\java\com\sontx\tourist\service\GetListTourCatService.java
D:\SonTX\CaoHoc\Java\tourist\tourist\src\main\java\com\sontx\Main.java
