[
    {
        "iconClass": "fas fa-tachometer-alt",
        "path": "Management",
        "permission": "Management",
        "title": "Quản trị"
    },
    {
        "iconClass": "fas fa-project-diagram",
        "path": "TongQuanAdmin",
        "permission": "TongQuanAdmin",
        "title": "Tổng Quan"
    },
    {
        "iconClass": "fas fa-dollar-sign",
        "path": "PheGame",
        "permission": "PheGame",
        "title": "Phế game"
    },
    {
        "iconClass": "fas fa-chart-bar",
        "path": "SoLieu",
        "permission": "SoLieu",
        "title": "Số Liệu"
    }
]